^C:\USERS\HOLSTONJX1\DOCUMENTS\GROVE CITY\VISUAL STUDIO\PROGRAM 5\PROGRAM 5\PROGRAM5.QRC
^C:\USERS\HOLSTONJX1\DOCUMENTS\GROVE CITY\VISUAL STUDIO\PROGRAM 5\PROGRAM 5\ABOUT.UI
C:\QT\QT5.6.3\5.6.3\MSVC2015\BIN\UIC.EXE
^C:\USERS\HOLSTONJX1\DOCUMENTS\GROVE CITY\VISUAL STUDIO\PROGRAM 5\PROGRAM 5\PROGRAM5.H
C:\QT\QT5.6.3\5.6.3\MSVC2015\BIN\MOC.EXE
^C:\USERS\HOLSTONJX1\DOCUMENTS\GROVE CITY\VISUAL STUDIO\PROGRAM 5\PROGRAM 5\PROGRAM5.UI
C:\QT\QT5.6.3\5.6.3\MSVC2015\BIN\UIC.EXE
^C:\USERS\HOLSTONJX1\DOCUMENTS\GROVE CITY\REPOSITORIES\BMP FRONTEND APPLICATION\PROGRAM 5\PROGRAM 5\PROGRAM5.QRC
^C:\USERS\HOLSTONJX1\DOCUMENTS\GROVE CITY\REPOSITORIES\BMP FRONTEND APPLICATION\PROGRAM 5\PROGRAM 5\PROGRAM5.UI
C:\QT\QT5.6.3\5.6.3\MSVC2015\BIN\UIC.EXE
^C:\USERS\HOLSTONJX1\DOCUMENTS\GROVE CITY\REPOSITORIES\BMP FRONTEND APPLICATION\PROGRAM 5\PROGRAM 5\PROGRAM5.H
C:\QT\QT5.6.3\5.6.3\MSVC2015\BIN\MOC.EXE
